%!PS
% "C" takes the following arguments:
% linewidth linegray fillgray X Y r ang1 ang2
/C { %def
	gsave
		newpath 0 360 arc
		gsave setgray fill grestore
		setgray setlinewidth stroke
	grestore
} bind def
3 .5 .9 300 500 200 C
showpage
