%!PS 
% 18-pt spacing, 24 lines 
/Helvetica findfont
24 scalefont setfont
0 18 18 24 mul { %for 
dup 0 moveto 
600 lineto 
} for stroke 
% 18-pt spacing, 36 lines 
0 18 18 42 mul { %for 
dup 0 exch moveto 
436 exch lineto 
} for stroke 
%%EOF