%!PS
%% Author: Alena Lacova,  alena@nikhef.nl
%% Date: 12-FEB-1992
%% Description: This program prints 1331 (11 to 3) different
%%		colors on 5 pages
%%
%%---------- Beginning of Definitions ----------
%%
/textfontsize 10 def
/Helvetica-BoldOblique findfont textfontsize scalefont setfont
/red 0 def /green 0 def /blue 0 def
/NewPageDef { %def
	/LX 90 def		% beginning of the color line
	/y 700 def		% first color line
	/RX 20 def /GX 40 def /BX 60 def	% where to print numbers
	LineWidth
	FirstLine
} bind def
/LineWidth { 1 setlinecap textfontsize 0.8 mul setlinewidth } bind def
/Napis {(red green blue   setrgbcolor) show } def
/FirstLine { 
	gsave
	0 0 0 setrgbcolor
	RX 730 moveto Napis	
	RX 150 add 730 moveto Napis
	RX 300 add 730 moveto Napis
	RX 450 add 730 moveto Napis
	grestore
} bind def
/str 10 string def
/SC { %def set the color
	red green blue setrgbcolor
	RX y moveto red str cvs show 
	GX y moveto green str cvs show 
	BX y moveto blue str cvs show 
} bind def
/PrintLine { 
	LX y textfontsize 3 div add moveto 
	50 0 rlineto stroke  
	y 40 gt RX 600 lt and { %if
		/y y textfontsize sub def 
	}{ %else
		RX 600 lt { %if
	  		/RX RX 150 add def
	  		/GX GX 150 add def
	  		/BX BX 150 add def
	  		/LX LX 150 add def
	  		/y 700 def
	  	 }{ %else
			 showpage
		  	 NewPageDef 
	   	 } ifelse
	} ifelse
} bind def
%%
%%---------- End of Definitions ----------
%%---------- Beginning of Program --------
%%
gsave
NewPageDef
0 0.1 1.1 { %for
	/blue exch def  
	0 .1 1.1 { %for
		/green exch def 
		0 .1 1.1 { %for
			/red exch def SC PrintLine 
		} for 
	} for 
} for
grestore
showpage
%%---------- End of Program --------------
