%!PS-Adobe-1.0
% File produced by AutoCAD
/m /moveto load def
/l /lineto load def
%%EndProlog
0.25 dup scale

917 871 m
921 868 l
927 868 l
931 871 l
933 865 m
947 880 l
937 862 m
969 895 l
937 862 m
929 858 l
920 858 l
913 862 l
797 978 l
792 986 l
792 994 l
797 1002 l
1138 1343 l
1148 1346 m
803 1001 l
799 994 l
799 985 l
803 978 l
916 865 l
921 862 l
927 862 l
933 865 l
917 871 m
810 977 l
806 985 l
806 994 l
810 1001 l
1153 1344 l
1156 1339 m
1275 1220 l
1280 1217 m
1190 1127 l
1191 1141 m
1074 1257 l
1070 1252 m
1158 1163 l
1146 1157 m
1060 1243 l
1055 1238 m
1168 1125 l
1154 1121 m
1046 1229 l
1051 1233 m
1132 1152 l
1132 1150 l
1126 1149 l
1117 1149 m
1041 1224 l
1037 1219 m
1138 1118 l
1121 1116 m
1027 1210 l
1022 1205 m
1079 1149 l
1099 1148 m
1032 1215 l
1018 1200 m
1102 1116 l
1090 1110 m
1009 1191 l
1013 1196 m
1054 1154 l
1056 1154 l
1056 1153 l
1042 1147 m
1003 1186 l
998 1181 m
1078 1100 l
1068 1090 m
987 1170 l
982 1165 m
1021 1126 l
1010 1115 m
972 1154 l
966 1149 m
1049 1066 l
1042 1052 m
956 1138 l
950 1133 m
1002 1081 l
1006 1098 m
961 1144 l
945 1128 m
1034 1039 l
1026 1025 m
934 1117 l
929 1112 m
994 1047 l
997 1064 m
940 1122 l
924 1106 m
1018 1012 l
1008 1001 m
913 1096 l
918 1101 m
987 1033 l
980 1018 m
908 1090 l
902 1085 m
998 990 l
983 983 m
892 1074 l
886 1069 m
958 997 l
941 993 m
876 1058 l
870 1053 m
951 973 l
970 975 m
881 1064 l
865 1048 m
928 985 l
908 984 m
855 1037 l
849 1032 m
915 966 l
896 964 m
839 1021 l
833 1016 m
868 981 l
888 983 m
844 1027 l
828 1011 m
875 963 l
851 966 m
817 1000 l
812 995 m
820 987 l
823 1005 m
845 983 l
860 1043 m
935 967 l
969 1008 m
897 1080 l
stroke

977 1160 m
1057 1079 l
1032 1137 m
993 1176 l
1065 1248 m
1180 1133 l
1203 1147 m
1084 1267 l
1089 1271 m
1179 1181 l
1169 1172 m
1079 1262 l
1093 1276 m
1212 1157 l
1234 1178 m
1115 1298 l
1119 1302 m
1238 1183 l
1242 1187 m
1123 1306 l
1127 1310 m
1246 1191 l
1251 1195 m
1131 1314 l
1136 1318 m
1255 1199 l
1259 1203 m
1140 1322 l
1144 1327 m
1263 1207 l
1267 1212 m
1148 1331 l
1152 1335 m
1271 1216 l
1283 1214 m
1140 1071 l
1098 1022 m
1281 1204 l
1184 1195 m
1098 1281 l
786 958 m
810 933 l
805 899 m
766 938 l
747 922 m
817 852 l
835 813 m
739 909 l
726 900 m
837 790 l
833 543 m
873 550 l
873 552 l
891 552 l
899 549 l
927 532 l
976 532 l
997 545 m
1017 545 l
1036 532 l
1085 532 l
1105 545 m
1126 545 l
1145 532 l
1193 532 l
1193 466 m
1145 466 l
1126 483 l
1105 483 l
1105 481 l
1126 481 l
1145 463 l
1193 463 l
1085 463 m
1036 463 l
1017 481 l
997 481 l
997 483 l
1017 483 l
1036 466 l
1085 466 l
1085 529 m
1036 529 l
1017 542 l
997 542 l
976 529 m
927 529 l
899 546 l
891 549 l
873 549 l
873 547 l
833 540 l
793 534 l
752 531 l
711 529 l
513 529 l
471 531 l
429 534 l
387 540 l
346 548 l
346 551 m
387 544 l
429 538 l
471 534 l
513 532 l
711 532 l
752 534 l
793 538 l
833 543 l
833 536 m
793 531 l
752 527 l
711 526 l
711 466 m
766 469 l
820 477 l
873 490 l
873 491 l
891 491 l
899 487 l
927 463 l
976 463 l
stroke

976 466 m
927 466 l
899 489 l
891 493 l
873 493 l
873 488 m
820 475 l
766 467 l
711 463 l
513 463 l
471 466 l
429 471 l
387 479 l
346 490 l
346 492 l
387 481 l
429 473 l
471 468 l
513 466 l
711 466 l
711 526 m
513 526 l
471 527 l
429 531 l
387 537 l
346 545 l
310 536 m
135 536 l
126 542 l
117 543 l
110 547 l
104 552 l
101 558 l
101 554 m
104 548 l
110 543 l
117 540 l
126 538 l
135 533 l
310 533 l
310 529 m
135 529 l
126 535 l
117 536 l
110 540 l
104 545 l
101 551 l
101 501 m
106 490 l
115 482 l
126 478 l
135 471 l
310 471 l
310 468 m
135 468 l
126 476 l
115 479 l
106 488 l
101 499 l
104 530 m
110 524 l
117 520 l
126 518 l
135 512 l
310 512 l
346 529 m
387 520 l
429 514 l
471 510 l
513 508 l
711 508 l
766 511 l
820 517 l
873 528 l
873 530 l
891 530 l
899 527 l
927 508 l
976 508 l
976 526 m
927 526 l
899 543 l
891 545 l
873 545 l
873 543 l
833 536 l
997 538 m
1017 538 l
1036 526 l
1085 526 l
1085 508 m
1036 508 l
1017 522 l
997 522 l
stroke

1105 522 m
1126 522 l
1145 508 l
1193 508 l
1193 526 m
1145 526 l
1126 538 l
1105 538 l
1105 542 m
1126 542 l
1145 529 l
1193 529 l
1434 529 m
1437 523 l
1444 520 l
1460 520 l
1463 524 l
1460 537 m
1463 540 l
1460 540 m
1463 543 l
1460 543 m
1463 547 l
1460 543 m
1444 543 l
1437 546 l
1434 551 l
1434 547 m
1437 542 l
1444 540 l
1460 540 l
1460 537 m
1444 537 l
1437 539 l
1434 544 l
1434 491 m
1437 484 l
1444 481 l
1460 481 l
1463 485 l
1463 483 l
1460 478 l
1444 478 l
1437 482 l
1434 489 l
1572 485 m
1595 481 l
1617 473 l
1665 450 l
1668 454 l
1668 452 l
1665 447 l
1617 470 l
1595 479 l
1572 483 l
1572 524 m
1595 520 l
1617 513 l
1665 494 l
1668 498 l
1670 494 m
1700 484 l
1731 477 l
1763 473 l
1795 471 l
1795 494 m
1763 495 l
1731 499 l
1700 505 l
1670 513 l
1670 517 m
1700 508 l
1731 502 l
1763 498 l
1795 497 l
1795 500 m
1763 502 l
1731 506 l
1700 512 l
1670 520 l
1668 521 m
1665 517 l
1617 534 l
1595 540 l
1572 543 l
1572 540 m
1595 537 l
1617 531 l
1665 514 l
1668 517 l
1668 524 m
1665 521 l
1617 537 l
1595 543 l
1572 547 l
1670 449 m
1700 437 l
1731 429 l
1763 423 l
1795 421 l
1795 418 m
1763 420 l
1731 426 l
1700 434 l
1670 446 l
stroke

1668 952 m
1665 957 l
1617 933 l
1595 925 l
1572 920 l
1572 923 m
1595 928 l
1617 937 l
1665 960 l
1668 955 l
1670 954 m
1700 966 l
1731 975 l
1763 980 l
1795 982 l
1795 986 m
1763 984 l
1731 978 l
1700 969 l
1670 958 l
1668 959 m
1665 963 l
1617 940 l
1595 931 l
1572 927 l
1572 930 m
1595 935 l
1617 943 l
1665 967 l
1668 962 l
1670 961 m
1700 973 l
1731 981 l
1763 987 l
1795 989 l
1795 992 m
1763 990 l
1731 985 l
1700 976 l
1670 964 l
1670 968 m
1700 979 l
1731 988 l
1763 994 l
1795 996 l
1795 979 m
1763 977 l
1731 971 l
1700 963 l
1670 951 l
1668 949 m
1665 953 l
1617 930 l
1595 921 l
1572 917 l
1572 913 m
1595 918 l
1617 927 l
1665 950 l
1668 945 l
1460 935 m
1463 930 l
1463 927 m
1460 931 l
1444 931 l
1437 928 l
1434 921 l
1434 918 m
1437 925 l
1444 928 l
1460 928 l
1463 923 l
1463 920 m
1460 925 l
1444 925 l
1437 921 l
1434 914 l
1434 911 m
1437 918 l
1444 921 l
1460 921 l
1463 917 l
1460 918 m
1463 913 l
1460 918 m
1444 918 l
1437 915 l
1434 908 l
1434 925 m
1437 931 l
1444 935 l
1460 935 l
1460 891 m
1463 887 l
1460 891 m
1444 891 l
1437 888 l
1434 882 l
1572 887 m
1595 891 l
1617 898 l
1665 917 l
1668 913 l
1670 917 m
1700 927 l
1731 934 l
1763 938 l
1795 940 l
stroke

1193 940 m
1145 940 l
1126 922 l
1105 922 l
1105 919 m
1126 919 l
1145 937 l
1193 937 l
1193 933 m
1145 933 l
1126 916 l
1105 916 l
1105 926 m
1126 926 l
1145 943 l
1193 943 l
1193 947 m
1145 947 l
1126 929 l
1105 929 l
1105 932 m
1126 932 l
1145 950 l
1193 950 l
1193 903 m
1145 903 l
1126 889 l
1105 889 l
1085 903 m
1036 903 l
1036 933 m
1085 933 l
1085 937 m
1036 937 l
1036 940 m
1085 940 l
1085 943 m
1036 943 l
1036 947 m
1085 947 l
1085 950 m
1036 950 l
1036 900 m
1085 900 l
1105 885 m
1126 885 l
1145 900 l
1193 900 l
1437 885 m
1444 887 l
1460 887 l
1463 884 l
1437 885 m
1434 879 l
1463 880 m
1460 884 l
1444 884 l
1437 881 m
1434 876 l
1437 881 m
1444 884 l
1572 884 m
1595 887 l
1617 894 l
1665 913 l
1668 909 l
1668 906 m
1665 910 l
1617 891 l
1595 884 l
1572 880 l
1670 911 m
1700 920 l
1731 927 l
1763 932 l
1795 933 l
1795 937 m
1763 935 l
1731 931 l
1700 924 l
1670 914 l
1193 897 m
1145 897 l
1126 882 l
1105 882 l
1085 897 m
1036 897 l
976 883 m
971 885 l
975 883 m
952 866 l
951 866 l
976 849 l
976 850 l
928 812 l
928 794 m
976 831 l
943 857 l
930 848 m
976 811 l
928 771 l
928 751 m
976 793 l
976 771 m
928 729 l
928 708 m
928 847 l
928 831 m
976 868 l
976 867 l
960 877 l
928 831 m
976 793 l
976 771 m
928 811 l
928 793 m
976 751 l
930 708 l
928 729 m
952 707 l
953 708 l
976 729 l
928 771 l
stroke

928 751 m
975 707 l
976 708 l
976 892 l
1036 951 m
1036 708 l
1060 707 m
1084 729 l
1084 708 m
1084 957 l
1041 957 l
1037 952 m
1060 956 l
1084 956 m
1037 947 l
1037 751 m
1084 794 l
1084 812 m
1037 772 l
1036 794 m
1084 831 l
1084 850 m
1036 812 l
1037 831 m
1084 869 l
1084 883 m
1037 850 l
1037 868 m
1084 898 l
1084 911 m
1037 883 l
1037 898 m
1084 923 l
1084 932 m
1036 912 l
1037 923 m
1084 941 l
1084 948 m
1037 932 l
1037 941 m
1084 952 l
1084 772 m
1037 729 l
1061 707 l
1038 707 m
1084 751 l
1083 707 m
1037 751 l
1037 772 m
1085 729 l
1085 751 m
1037 794 l
1037 812 m
1085 772 l
1085 794 m
1037 831 l
1037 850 m
1085 812 l
1085 831 m
1037 869 l
1037 883 m
1085 850 l
1085 868 m
1037 898 l
1037 911 m
1085 883 l
1085 898 m
1037 923 l
1037 932 m
1085 912 l
1085 923 m
1037 941 l
1037 948 m
1085 932 l
1085 941 m
1037 952 l
1037 956 m
1085 947 l
1085 952 m
1061 956 l
1145 957 m
1145 708 l
1169 707 m
1193 729 l
1193 708 m
1193 957 l
1145 957 l
1145 952 m
1169 956 l
1193 956 m
1145 947 l
1145 751 m
1193 794 l
1193 812 m
1145 772 l
1145 794 m
1193 831 l
1193 850 m
1145 812 l
1145 831 m
1193 869 l
1193 883 m
1145 850 l
1145 868 m
1193 898 l
1193 911 m
1145 883 l
1145 898 m
1193 923 l
1193 932 m
1145 912 l
1145 923 m
1193 941 l
1193 948 m
1145 932 l
1145 941 m
1193 952 l
1193 772 m
1145 729 l
1146 729 l
1169 707 l
1146 707 m
1193 751 l
1192 707 m
1146 751 l
1146 772 m
1193 729 l
1193 751 m
1146 794 l
1146 812 m
1193 772 l
1194 794 m
1146 831 l
1146 850 m
1194 812 l
1193 831 m
1146 869 l
1146 883 m
1193 850 l
1193 868 m
1146 898 l
1146 911 m
1193 883 l
1193 898 m
1146 923 l
1146 932 m
1194 912 l
1193 923 m
1146 941 l
1146 948 m
1193 932 l
1193 941 m
1146 952 l
1146 956 m
1193 947 l
stroke

1193 952 m
1169 956 l
1145 957 m
1126 938 l
1105 938 l
1084 957 l
1126 938 m
1126 707 l
1105 707 m
1105 938 l
1017 932 m
1017 707 l
996 707 m
996 912 l
899 845 m
899 707 l
890 707 m
890 837 l
873 819 m
873 707 l
712 610 m
712 458 l
513 458 m
513 600 l
533 805 m
622 805 l
711 897 m
513 897 l
471 895 l
429 890 l
387 884 l
346 875 l
346 878 m
387 887 l
429 894 l
471 898 l
513 900 l
711 900 l
711 903 m
513 903 l
471 901 l
429 897 l
387 890 l
346 882 l
346 907 m
387 918 l
429 926 l
471 931 l
513 933 l
711 933 l
711 937 m
513 937 l
471 934 l
429 929 l
387 921 l
346 910 l
346 913 m
387 924 l
429 933 l
471 938 l
513 940 l
711 940 l
711 943 m
513 943 l
471 941 l
429 936 l
387 928 l
346 917 l
346 920 m
387 931 l
429 939 l
471 945 l
513 947 l
711 947 l
711 950 m
513 950 l
471 948 l
429 943 l
387 934 l
346 923 l
310 928 m
135 928 l
126 921 l
115 917 l
106 909 l
101 898 l
101 901 m
106 912 l
115 920 l
126 924 l
135 932 l
310 932 l
310 935 m
135 935 l
126 927 l
115 924 l
106 916 l
101 904 l
101 908 m
106 919 l
115 927 l
126 931 l
135 939 l
310 939 l
310 942 m
135 942 l
126 934 l
115 930 l
106 922 l
101 911 l
stroke

101 914 m
106 926 l
115 934 l
126 937 l
135 945 l
310 945 l
310 899 m
135 899 l
126 893 l
117 891 l
110 887 l
104 881 l
101 874 l
101 871 m
104 878 l
110 884 l
117 888 l
126 889 l
135 896 l
310 896 l
310 893 m
135 893 l
126 886 l
117 884 l
110 880 l
104 875 l
101 868 l
101 537 m
104 530 l
355 708 m
357 723 l
362 738 l
371 751 l
383 762 l
380 761 m
403 778 l
429 791 l
460 805 m
465 800 l
472 799 l
479 802 l
483 808 l
483 815 l
483 823 m
497 834 l
500 836 m
506 831 l
513 830 l
519 833 l
523 839 l
524 846 l
526 851 m
542 858 l
545 862 m
548 855 l
553 851 l
560 850 l
566 852 l
570 858 l
571 865 l
574 866 m
592 869 l
596 869 m
598 862 l
603 857 l
610 856 l
617 859 l
621 865 l
621 872 l
623 878 m
631 873 l
640 872 l
648 875 l
643 867 l
643 859 l
647 851 l
654 847 l
663 846 l
661 850 m
668 852 l
672 858 l
672 865 l
676 867 m
671 875 l
664 879 l
655 879 l
648 875 l
653 874 m
648 869 l
647 862 l
649 855 l
654 851 l
661 850 l
659 854 m
664 856 l
667 861 l
676 859 m
676 867 l
675 869 m
681 864 l
653 867 m
651 862 l
654 857 l
659 854 l
stroke

644 856 m
638 861 l
630 862 l
622 859 l
621 857 m
625 865 l
625 874 l
621 881 l
613 885 l
605 885 l
597 881 l
593 874 l
593 865 l
597 857 l
605 853 l
613 853 l
621 857 l
614 862 m
617 867 l
614 862 m
608 861 l
603 863 l
601 869 l
602 874 l
598 876 m
596 869 l
598 876 m
603 880 l
595 878 m
587 873 l
578 872 l
570 875 l
570 874 l
563 879 l
554 879 l
546 874 l
542 867 l
542 858 l
546 851 l
554 846 l
563 846 l
570 851 l
574 858 l
574 867 l
570 874 l
566 861 m
563 856 l
558 854 l
552 857 l
550 862 l
552 867 l
552 874 m
547 869 l
545 862 l
543 867 m
536 861 l
528 858 l
519 858 l
515 859 m
507 859 l
499 855 l
495 847 l
495 839 l
499 831 l
507 827 l
515 827 l
523 831 l
527 839 l
527 847 l
523 855 l
515 859 l
505 854 m
500 849 l
498 842 l
500 836 l
505 837 m
511 835 l
516 836 l
519 841 l
528 841 m
533 847 l
540 850 l
548 850 l
574 856 m
580 861 l
588 862 l
596 859 l
590 825 m
566 820 l
542 810 l
521 797 l
501 781 l
490 773 l
477 769 l
464 769 l
451 773 l
440 781 l
432 792 l
428 805 l
428 819 l
432 832 l
440 843 l
469 867 l
501 887 l
703 886 l
stroke

720 886 m
751 855 l
729 856 m
715 870 l
712 896 m
712 954 l
711 955 l
767 952 l
791 975 m
910 856 l
917 851 l
924 850 l
932 851 l
939 856 l
1277 1194 l
1281 1200 l
1283 1208 l
1281 1216 l
1277 1222 l
1157 1342 l
1151 1346 l
1143 1348 l
1135 1346 l
1129 1342 l
791 1004 l
787 997 l
785 989 l
787 982 l
791 975 l
790 976 l
809 985 l
810 985 l
920 875 l
924 873 l
929 875 l
1277 1223 l
1245 1163 m
1226 1171 l
1233 1150 l
1226 1171 m
1106 1291 l
1085 1298 l
1097 1309 m
1106 1291 l
1158 1342 m
810 994 l
808 989 l
810 985 l
808 993 m
790 1002 l
770 834 m
762 840 l
752 843 l
742 843 l
733 840 l
725 834 l
719 826 l
716 817 l
716 807 l
719 798 l
725 790 l
733 784 l
742 781 l
752 781 l
762 784 l
770 790 l
775 798 l
779 807 l
779 817 l
775 826 l
770 834 l
793 814 m
820 787 l
823 770 m
833 761 l
831 762 m
843 751 l
852 738 l
857 723 l
859 708 l
806 779 m
789 797 l
709 733 m
701 738 l
692 741 l
682 741 l
672 738 l
664 733 l
659 725 l
656 715 l
656 705 l
659 696 l
664 688 l
672 682 l
682 679 l
692 679 l
701 682 l
709 688 l
715 696 l
718 705 l
718 715 l
715 725 l
709 733 l
stroke

702 725 m
707 705 l
692 690 l
672 695 l
666 716 l
681 731 l
702 725 l
647 712 m
636 720 l
623 726 l
609 727 l
595 726 l
582 720 l
570 712 l
562 700 l
556 687 l
555 673 l
556 659 l
562 646 l
570 635 l
582 627 l
595 621 l
609 619 l
623 621 l
636 627 l
647 635 l
655 646 l
661 659 l
663 673 l
661 687 l
655 700 l
647 712 l
624 688 m
629 668 l
614 653 l
594 659 l
588 679 l
603 694 l
624 688 l
616 680 m
602 666 l
604 678 m
614 668 l
608 575 m
628 577 l
630 577 l
909 856 l
909 857 l
920 874 l
930 875 m
938 856 l
861 708 m
859 692 l
853 677 l
844 664 l
833 653 l
835 654 m
813 638 l
790 626 l
765 617 l
739 611 l
713 609 l
715 613 m
724 633 l
729 654 l
731 675 l
715 613 m
703 596 l
688 581 l
670 568 l
651 559 l
630 553 l
609 552 l
587 554 l
567 559 l
547 568 l
530 581 l
515 596 l
503 614 l
494 633 l
488 654 l
487 676 l
489 697 l
495 718 l
505 737 l
517 754 l
533 769 l
551 781 l
570 789 l
591 794 l
613 796 l
615 826 m
590 825 l
stroke

615 826 m
640 823 l
643 866 m
626 869 l
513 886 m
513 954 l
510 955 m
469 953 l
428 948 l
387 941 l
348 930 l
459 824 m
454 816 l
454 808 l
459 800 l
466 796 l
475 796 l
482 800 l
487 808 l
487 816 l
482 824 l
475 828 l
466 828 l
459 824 l
465 823 m
460 818 l
458 811 l
460 805 l
465 806 m
470 804 l
476 805 l
479 810 l
487 814 m
490 822 l
497 826 l
505 828 l
505 837 m
503 842 l
505 848 l
495 844 m
490 836 l
483 830 l
474 828 l
464 817 m
463 811 l
465 806 l
513 696 m
510 677 l
512 657 l
517 638 l
526 621 l
538 605 l
553 593 l
570 583 l
588 577 l
608 575 l
502 609 m
475 611 l
449 617 l
425 626 l
401 638 l
380 654 l
382 653 m
370 664 l
362 677 l
356 692 l
354 708 l
347 708 m
347 485 l
349 483 m
389 473 l
429 465 l
470 460 l
511 459 l
711 459 m
753 460 l
793 465 l
834 473 l
874 483 l
928 468 m
975 459 l
975 458 l
996 476 l
1017 476 l
1036 458 l
1037 459 l
1085 468 l
1084 467 l
1037 483 l
1085 503 l
1084 504 l
1037 532 l
1085 565 l
1084 565 l
1036 603 l
1037 603 l
1085 643 l
1084 643 l
1037 686 l
1061 708 l
1060 708 l
1084 686 l
1085 686 l
1037 643 l
1084 603 l
1085 603 l
1037 565 l
1084 532 l
1085 532 l
1037 504 l
1036 503 l
1084 483 l
1085 483 l
1037 467 l
1037 468 l
1084 459 l
1084 458 l
1105 476 l
1126 476 l
1145 458 l
stroke

1145 458 m
1145 707 l
1146 708 l
1193 664 l
1146 621 l
1145 621 l
1193 584 l
1146 546 l
1145 547 l
1193 517 l
1146 492 l
1145 492 l
1193 474 l
1146 463 l
1145 463 l
1169 459 l
1193 463 l
1145 474 l
1146 474 l
1193 492 l
1145 517 l
1146 517 l
1193 547 l
1193 546 l
1145 584 l
1146 584 l
1194 621 l
1193 621 l
1145 664 l
1146 664 l
1192 708 l
1193 707 l
1193 458 l
1145 458 l
1146 459 l
1193 468 l
1193 467 l
1145 483 l
1146 483 l
1194 503 l
1193 504 l
1145 532 l
1146 532 l
1193 565 l
1145 603 l
1146 603 l
1193 643 l
1145 686 l
1146 686 l
1169 708 l
1193 686 l
1146 643 l
1145 643 l
1193 603 l
1194 603 l
1146 565 l
1145 565 l
1193 532 l
1146 504 l
1145 503 l
1193 483 l
1146 467 l
1145 468 l
1193 459 l
1193 458 l
1225 490 l
1225 708 l
1225 707 l
1225 925 l
1193 957 l
1126 708 m
1126 476 l
1105 476 m
1105 708 l
1084 707 m
1084 458 l
1036 458 l
1036 707 l
1038 708 m
1084 664 l
1085 664 l
1037 621 l
1036 621 l
1084 584 l
1085 584 l
1037 546 l
1037 547 l
1084 517 l
1085 517 l
1037 492 l
1084 474 l
1085 474 l
1037 463 l
1060 459 l
1061 459 l
1085 463 l
1084 463 l
1037 474 l
1085 492 l
1084 492 l
1037 517 l
1085 547 l
1084 546 l
1037 584 l
1085 621 l
1084 621 l
1037 664 l
stroke

1037 664 m
1083 708 l
1017 708 m
1017 476 l
996 476 m
996 708 l
976 707 m
976 458 l
927 458 l
927 707 l
929 708 m
975 664 l
976 664 l
928 621 l
927 621 l
975 584 l
976 584 l
928 546 l
928 547 l
975 517 l
976 517 l
928 492 l
975 474 l
976 474 l
928 463 l
952 459 l
976 463 l
975 463 l
928 474 l
976 492 l
975 492 l
928 517 l
976 547 l
975 546 l
928 584 l
976 621 l
975 621 l
928 664 l
975 708 l
975 686 m
952 708 l
928 686 l
975 643 l
976 643 l
928 603 l
927 603 l
975 565 l
976 565 l
928 532 l
975 504 l
976 503 l
928 483 l
975 467 l
976 468 l
928 459 l
928 458 l
899 482 l
890 486 l
873 486 l
873 485 l
873 708 l
890 708 m
890 486 l
899 482 m
899 708 l
928 643 m
976 686 l
976 603 m
928 565 l
975 532 l
976 532 l
928 504 l
927 503 l
975 483 l
976 483 l
928 467 l
928 643 m
975 603 l
712 458 m
509 458 l
512 695 m
791 974 l
1810 708 m
1810 399 l
1815 393 m
1811 409 l
1815 392 l
1824 377 l
1836 364 l
1851 355 l
1867 349 l
1885 347 l
1885 348 l
1867 350 l
1851 356 l
1836 365 l
1824 378 l
1815 393 l
stroke

1810 399 m
1804 400 l
1799 405 l
1798 410 l
1827 421 m
2011 421 l
2011 434 l
2011 421 m
2027 418 l
2039 410 l
2048 398 l
2048 434 l
2050 434 l
2050 393 l
1885 393 l
1885 434 m
1865 435 l
1846 442 l
1830 453 l
1816 468 l
1822 469 m
1815 479 l
1811 489 l
1811 500 l
1812 509 l
1819 515 l
1827 517 l
2011 517 l
2011 584 l
2048 584 m
2048 500 l
2049 500 l
2050 497 l
2050 584 l
2056 584 m
1885 584 l
1861 586 l
1838 590 l
1816 599 l
1812 604 l
1810 610 l
1810 646 l
1812 655 l
1818 662 l
1827 665 l
2011 665 l
2011 708 l
2048 708 m
2048 658 l
2064 647 l
2077 634 l
2085 624 l
2089 618 l
2089 612 l
2086 603 l
2080 595 l
2069 588 l
2057 585 l
2089 612 m
1885 612 l
1873 612 l
1862 613 l
1851 614 l
1841 615 l
1832 617 l
1824 620 l
1818 622 l
1813 625 l
1811 628 l
1828 663 m
1838 661 l
1848 659 l
1860 657 l
1872 656 l
1885 656 l
2051 656 l
2050 656 l
2050 708 l
2048 658 m
2030 663 l
2011 665 l
2011 517 m
2025 515 l
2038 509 l
2049 500 l
2050 497 m
1885 497 l
1869 498 l
1854 502 l
1840 508 l
1828 516 l
1810 491 m
1811 479 l
1815 469 l
1822 469 m
1831 460 l
1842 453 l
1856 448 l
1870 445 l
1885 444 l
2089 444 l
2088 440 l
2085 437 l
2080 435 l
2069 434 l
2070 434 l
1885 434 l
stroke

1885 393 m
1869 395 l
1854 400 l
1840 409 l
1828 420 l
1827 421 l
1820 420 l
1814 416 l
1810 409 l
1810 399 m
1813 399 l
1798 410 m
1798 708 l
1810 708 m
1810 1017 l
1815 1023 m
1811 1007 l
1815 1024 l
1824 1039 l
1836 1052 l
1851 1062 l
1867 1067 l
1885 1069 l
1885 1068 l
1867 1066 l
1851 1060 l
1836 1051 l
1824 1038 l
1815 1023 l
1830 963 m
1816 948 l
1822 947 m
1815 938 l
1811 927 l
1811 916 l
1812 907 l
1819 901 l
1827 899 l
1822 947 m
1831 956 l
1842 963 l
1856 968 l
1870 971 l
1885 972 l
1885 982 m
1865 981 l
1846 974 l
1830 963 l
1885 982 m
2070 982 l
2080 981 m
2085 979 l
2088 976 l
2089 972 l
2086 963 l
2080 955 l
2065 938 l
2050 919 l
2050 832 l
2048 832 l
2048 916 l
2049 916 l
2050 919 l
1885 919 l
1885 972 m
2089 972 l
2080 981 m
2069 982 l
2050 982 m
2050 1023 l
1885 1023 l
1885 1068 m
2089 1068 l
2082 1069 l
2089 1068 m
2089 1066 l
2080 1058 l
2064 1042 l
2050 1023 l
2048 1018 l
2039 1007 l
2027 998 l
2011 995 l
2011 982 l
2011 995 m
1827 995 l
1810 1017 m
1804 1016 l
1799 1012 l
1798 1006 l
1810 1017 m
1813 1017 l
1798 1006 m
1798 708 l
1827 751 m
2011 751 l
2030 753 l
2048 758 l
2048 708 l
2050 708 l
2050 760 l
2051 760 l
1885 760 l
stroke

1885 804 m
1873 804 l
1862 804 l
1851 802 l
1841 801 l
1832 799 l
1824 796 l
1818 794 l
1813 791 l
1811 788 l
1810 806 m
1812 812 l
1816 817 l
1838 826 l
1861 830 l
1885 832 l
2056 832 l
2057 832 l
2069 829 l
2080 821 l
2086 813 l
2089 805 l
1885 805 l
1885 760 m
1872 760 l
1860 759 l
1848 757 l
1838 755 l
1828 753 l
1827 751 m
1818 754 l
1812 761 l
1810 770 l
1810 806 l
1827 899 m
2011 899 l
2011 832 l
2011 899 m
2025 901 l
2038 907 l
2049 916 l
2048 982 m
2048 1019 l
2070 1069 m
2087 1080 l
2105 1086 l
2124 1088 l
2124 708 l
2124 328 l
2234 328 l
2234 706 l
2234 710 m
2234 1088 l
2124 1088 l
2083 1069 m
1885 1069 l
1885 1023 m
1869 1021 l
1854 1016 l
1840 1008 l
1828 996 l
1827 995 l
1820 996 l
1814 1000 l
1810 1007 l
1815 947 m
1811 937 l
1810 926 l
1828 901 m
1840 909 l
1854 915 l
1869 918 l
1885 919 l
2011 752 m
2011 708 l
2048 758 m
2064 769 l
2077 782 l
2085 792 l
2089 798 l
2089 805 l
2234 817 m
2247 817 l
2247 789 m
2234 789 l
2234 755 m
2247 755 l
2246 726 m
2233 726 l
2247 708 m
2247 340 l
2246 340 l
2234 340 l
2234 341 l
2247 341 l
2247 347 m
2234 347 l
2234 357 m
2247 357 l
2247 368 m
2234 368 l
2234 379 m
2247 379 l
2247 397 m
2234 397 l
2234 413 m
2247 413 l
stroke

2247 435 m
2234 435 l
2234 459 m
2247 459 l
2247 484 m
2234 484 l
2234 509 m
2247 509 l
2247 539 m
2234 539 l
2234 566 m
2247 566 l
2247 599 m
2234 599 l
2234 628 m
2247 628 l
2247 662 m
2234 662 l
2233 690 m
2246 690 l
2247 708 m
2247 1076 l
2246 1076 l
2234 1076 l
2234 1075 l
2247 1075 l
2247 1069 m
2234 1069 l
2234 1059 m
2247 1059 l
2247 1048 m
2234 1048 l
2234 1037 m
2247 1037 l
2247 1019 m
2234 1019 l
2234 1003 m
2247 1003 l
2247 981 m
2234 981 l
2234 957 m
2247 957 l
2247 932 m
2234 932 l
2234 907 m
2247 907 l
2247 877 m
2234 877 l
2234 850 m
2247 850 l
2050 497 m
2065 478 l
2080 461 l
2086 454 l
2089 444 l
2048 398 m
2050 393 l
2064 374 l
2080 358 l
2089 350 l
2089 348 l
2082 347 l
2083 347 l
1885 347 l
1885 348 l
2089 348 l
2087 336 m
2070 347 l
2087 336 m
2105 330 l
2124 328 l
1547 907 m
1547 910 l
1547 909 l
1531 912 l
1531 913 l
1531 906 l
1535 905 l
1531 906 l
1531 911 m
1547 908 l
1546 915 m
1546 916 l
1547 917 l
1547 918 l
1546 919 l
1545 920 l
1542 921 l
1540 922 l
1537 922 l
1535 922 l
1532 922 l
1531 921 l
1531 919 l
1531 918 l
1533 917 l
1535 916 l
1538 915 l
1541 915 l
1543 915 l
1546 915 l
1546 916 l
1547 917 l
1547 918 l
1546 920 l
1545 921 l
1542 922 l
1540 922 l
1537 923 l
1535 923 l
1532 922 l
1531 922 l
1531 921 l
1531 919 l
1531 918 l
1533 917 l
1535 916 l
1538 916 l
1541 915 l
1543 915 l
1546 916 l
stroke

1547 924 m
1547 927 l
1547 925 l
1531 932 l
1547 932 l
1532 931 l
1547 930 m
1547 933 l
1548 897 m
1539 899 l
1536 900 l
1534 900 l
1532 899 l
1531 897 l
1531 893 l
1532 891 l
1534 889 l
1536 889 l
1548 885 l
1548 893 m
1548 899 l
1548 896 m
1539 898 l
1536 899 l
1534 899 l
1532 898 l
1531 897 l
1531 880 m
1548 875 l
1531 874 l
1548 864 l
1531 869 l
1531 868 l
1548 863 l
1548 864 l
1548 861 l
1548 854 m
1531 858 l
1548 853 l
1543 850 m
1537 851 l
1548 856 m
1548 844 l
1543 845 l
1548 845 l
1540 850 m
1540 855 l
1531 861 m
1531 849 l
1535 847 l
1531 850 l
1531 866 m
1531 871 l
1533 874 m
1548 874 l
1548 878 l
1548 883 m
1548 888 l
1531 882 m
1531 878 l
1502 876 m
1502 870 l
1502 872 l
1485 877 l
1485 878 l
1502 873 l
1502 882 m
1497 883 l
1502 883 l
1502 882 l
1502 894 l
1497 896 l
1502 893 l
1502 888 m
1485 893 l
1485 892 l
1502 888 l
1502 904 m
1485 911 l
1485 912 l
1485 909 l
1485 906 m
1485 903 l
1485 904 l
1502 904 l
1500 905 m
1485 904 l
1490 904 m
1490 909 l
1485 914 m
1485 918 l
1485 920 l
1502 920 l
1486 919 l
1485 920 l
1502 913 l
1485 916 l
1502 913 l
1502 912 l
1502 920 m
1485 923 l
1485 924 l
1485 922 l
1486 929 m
1487 928 l
1490 927 l
1492 927 l
1495 926 l
1498 926 l
1500 927 l
1501 927 l
1502 928 l
1502 930 l
1501 931 l
1499 932 l
1497 933 l
1494 933 l
1491 934 l
1489 934 l
1486 933 l
1485 932 l
1485 931 l
1486 929 l
1486 930 l
1487 929 l
1490 928 l
1492 927 l
stroke

1492 927 m
1495 927 l
1498 927 l
1500 927 l
1502 928 l
1502 930 l
1501 931 l
1499 932 l
1497 933 l
1494 934 l
1491 934 l
1489 934 l
1486 934 l
1486 933 l
1485 932 l
1485 931 l
1486 930 l
1502 922 m
1502 920 l
1485 896 m
1485 890 l
1485 880 m
1485 875 l
1486 868 m
1486 867 l
1485 864 l
1485 862 l
1486 861 l
1487 859 l
1489 858 l
1489 868 m
1486 867 l
1486 866 l
1485 864 l
1486 868 m
1489 868 l
1491 868 l
1489 868 l
1491 868 l
1494 867 l
1497 866 l
1499 864 l
1501 863 l
1502 861 l
1501 864 l
1499 865 l
1497 867 l
1494 868 l
1491 868 l
1497 856 m
1498 856 l
1500 857 l
1501 857 l
1502 859 l
1502 861 l
1500 857 m
1500 856 l
1502 855 l
1497 856 l
1498 508 m
1498 500 l
1493 501 l
1498 501 l
1498 504 m
1481 507 l
1498 504 l
1498 507 m
1493 508 l
1498 508 l
1498 497 m
1498 491 l
1497 490 l
1496 489 l
1494 489 l
1492 490 l
1491 490 l
1490 492 l
1490 496 l
1490 494 l
1489 493 l
1489 492 l
1482 492 l
1481 491 l
1481 490 l
1483 490 l
1484 490 l
1483 490 l
1482 490 l
1482 491 l
1483 491 l
1489 492 l
1490 492 l
1491 491 l
1492 490 l
1494 490 l
1496 490 l
1497 490 l
1498 491 l
stroke

1498 495 m
1481 498 l
1481 499 l
1481 496 l
1481 497 l
1498 495 l
1497 485 m
1496 486 l
1493 486 l
1491 487 l
1488 487 l
1485 487 l
1483 487 l
1482 486 l
1481 486 l
1481 484 l
1482 483 l
1484 482 l
1486 481 l
1489 480 l
1492 480 l
1494 480 l
1497 480 l
1497 481 l
1498 482 l
1498 483 l
1497 484 l
1496 485 l
1493 486 l
1491 486 l
1488 487 l
1485 487 l
1483 486 l
1481 486 l
1481 484 l
1482 483 l
1484 482 l
1486 481 l
1489 481 l
1492 480 l
1494 480 l
1497 481 l
1498 482 l
1498 483 l
1497 485 l
1529 485 m
1529 488 l
1529 487 l
1546 480 l
1529 480 l
1545 481 l
1546 488 m
1541 489 l
1546 489 l
1546 488 l
1546 496 l
1541 497 l
1546 495 l
1546 492 m
1529 495 l
1546 492 l
1546 499 m
1541 500 l
1543 500 l
1545 500 l
1545 501 l
1546 502 l
1546 504 l
1545 506 l
1544 507 l
1542 507 l
1541 506 l
1540 506 l
1537 502 l
1535 501 l
1533 501 l
1531 502 l
1530 502 l
1529 504 l
1529 506 l
1530 507 l
1531 508 l
1533 508 l
1534 508 l
1529 509 l
1531 508 l
1531 508 l
stroke

1535 501 m
1537 502 l
1537 502 l
1541 506 l
1542 507 l
1545 500 m
1545 500 l
1546 499 l
1529 497 m
1529 493 l
1529 482 m
1529 479 l
1534 480 m
1534 485 l
1498 511 m
1498 515 l
1498 513 l
1481 518 l
1495 523 l
1498 523 m
1481 528 l
1481 526 l
1481 531 l
1483 537 m
1486 535 l
1488 535 l
1491 534 l
1494 534 l
1496 535 l
1497 535 l
1498 537 l
1498 539 l
1497 541 l
1495 543 l
1493 544 l
1490 545 l
1487 546 l
1485 546 l
1482 545 l
1481 543 l
1481 541 l
1482 539 l
1483 537 l
1483 538 l
1486 536 l
1488 535 l
1491 535 l
1494 535 l
1496 535 l
1498 537 l
1498 539 l
1497 542 l
1495 543 l
1493 545 l
1490 546 l
1487 547 l
1485 547 l
1482 546 l
1482 545 l
1481 543 l
1481 541 l
1482 539 l
1483 538 l
1483 553 m
1485 552 l
1483 553 m
1482 554 l
1481 556 l
1481 558 l
1482 560 l
1482 561 l
1481 558 l
1482 561 m
1485 562 l
1482 562 l
1482 561 l
1485 562 m
1487 562 l
1485 562 l
1487 562 l
1490 561 l
1493 560 l
1495 558 l
1497 557 l
1498 555 l
1497 558 l
1495 559 l
1493 561 l
1490 562 l
1487 562 l
1493 550 m
1494 550 l
1496 551 l
1497 551 l
1498 553 l
1498 555 l
stroke

1496 551 m
1496 550 l
1498 549 l
1493 550 l
1498 526 m
1498 523 l
1483 518 l
1481 508 m
1481 505 l
1529 517 m
1544 523 l
1546 523 l
1529 527 l
1529 525 l
1529 530 l
1530 538 m
1532 536 l
1534 535 l
1537 534 l
1540 533 l
1542 533 l
1545 534 l
1545 535 l
1546 536 l
1546 538 l
1545 540 l
1544 542 l
1541 543 l
1539 544 l
1536 545 l
1533 545 l
1531 544 l
1529 542 l
1529 540 l
1530 538 l
1532 537 l
1534 535 l
1537 535 l
1540 534 l
1542 534 l
1545 535 l
1546 536 l
1546 538 l
1545 541 l
1544 542 l
1541 544 l
1539 545 l
1536 546 l
1533 546 l
1531 545 l
1530 544 l
1529 542 l
1529 540 l
1530 538 l
1530 554 m
1532 552 l
1533 551 l
1530 554 m
1529 555 l
1529 558 l
1530 559 l
1531 560 l
1533 561 l
1536 561 l
1539 560 l
1541 559 l
1544 558 l
1541 560 l
1539 561 l
1536 562 l
1533 562 l
1531 561 l
1530 560 l
1529 558 l
1544 558 m
1545 556 l
1546 554 l
1545 557 l
1544 558 l
1546 554 m
1546 552 l
1545 550 l
1545 549 l
1546 548 l
1541 549 l
1543 549 l
1545 550 l
1545 550 l
1546 525 m
1546 523 l
1532 517 l
stroke

1529 517 m
1546 512 l
1546 510 l
1546 515 l
1545 617 m
1520 629 l
1520 651 l
1489 667 l
1481 694 l
1520 663 l
1520 689 l
1498 700 l
1500 707 l
1489 713 l
1482 741 l
1507 721 l
1511 730 l
1520 710 l
1520 743 l
1489 759 l
1481 788 l
1520 756 l
1521 800 l
1546 707 l
1531 715 l
1545 662 l
1532 669 l
1545 617 l
1537 625 m
1537 635 l
1534 646 l
1534 627 l
1531 628 l
1531 657 l
1528 668 l
1528 630 l
1525 631 l
1525 679 l
1524 678 l
1524 726 l
1524 678 l
1539 669 l
1524 726 l
1524 723 m
1540 715 l
1524 772 l
1524 723 l
1525 722 l
1525 768 l
1528 757 m
1528 721 l
1525 722 l
1531 719 m
1531 747 l
1528 757 l
1518 753 m
1509 753 l
1515 750 l
1521 750 l
1521 754 m
1481 788 l
1489 759 l
1520 743 l
1520 710 l
1511 732 l
1507 721 l
1482 741 l
1489 713 l
1500 707 l
1498 700 l
1520 689 l
1521 662 l
1481 694 l
1489 666 l
1519 651 l
1519 629 l
1520 629 l
1546 616 l
1531 670 l
1546 661 l
1530 716 l
1547 706 l
1521 800 l
1519 807 l
1520 800 m
1521 754 l
1518 753 m
1514 756 l
1503 756 l
1497 759 l
1510 759 l
1506 762 l
1492 762 l
1488 777 l
1533 741 l
1492 762 l
1491 765 l
1503 765 l
1499 768 l
1490 768 l
1489 771 l
1495 771 l
stroke

1495 725 m
1489 725 l
1490 722 l
1499 722 l
1503 719 l
1491 719 l
1492 716 l
1506 716 l
1510 713 l
1498 713 l
1504 710 l
1514 710 l
1518 707 l
1510 707 l
1516 704 l
1522 704 l
1517 702 m
1514 711 l
1514 696 l
1511 697 l
1511 720 l
1508 713 l
1508 699 l
1505 700 l
1505 706 l
1503 702 m
1511 720 l
1520 693 l
1503 702 l
1517 702 m
1517 694 l
1531 697 m
1492 716 l
1488 731 l
1531 697 l
1530 703 m
1527 714 l
1527 676 l
1524 678 l
1524 683 m
1524 632 l
1540 624 l
1524 683 l
1536 680 m
1533 691 l
1533 672 l
1530 674 l
1530 703 l
1531 719 m
1534 718 l
1534 736 l
1537 725 l
1537 716 l
1536 680 m
1536 670 l
1531 649 m
1492 669 l
1488 684 l
1531 649 l
1521 657 m
1515 657 l
1509 660 l
1517 660 l
1513 663 l
1503 663 l
1497 666 l
1510 666 l
1506 669 l
1492 669 l
1491 672 l
1502 672 l
1499 675 l
1490 675 l
1489 678 l
1495 678 l
1462 708 m
1462 477 l
1462 475 l
1460 474 l
1460 709 l
1460 707 l
1460 942 l
1462 941 l
1462 939 l
1462 708 l
1444 709 m
1444 474 l
1460 474 l
1462 478 m
1572 478 l
1572 709 l
1572 707 l
1572 938 l
1595 942 l
1617 950 l
1617 951 l
1617 707 l
1617 709 l
1617 466 l
1663 443 l
1665 443 l
1665 709 l
1665 707 l
1665 974 l
1665 973 l
1663 973 l
1617 951 l
stroke

1572 938 m
1462 938 l
1464 938 l
1569 938 l
1569 478 l
1464 478 l
1464 938 l
1460 942 m
1444 942 l
1439 941 l
1435 937 l
1434 932 l
1434 708 l
1434 484 l
1435 479 l
1439 475 l
1444 474 l
1374 498 m
1225 557 l
1275 758 m
1278 758 l
1281 760 l
1283 761 l
1284 766 l
1284 772 l
1283 776 l
1279 779 l
1276 779 l
1273 778 l
1272 776 l
1265 766 l
1262 763 l
1257 763 l
1254 764 l
1252 766 l
1251 770 l
1251 776 l
1252 781 l
1254 782 l
1257 784 l
1260 784 l
1251 786 l
1254 784 l
1254 782 l
1255 793 m
1260 792 l
1283 786 l
1283 790 m
1283 782 l
1276 779 m
1273 776 l
1267 766 l
1265 764 l
1262 763 l
1250 757 m
1250 746 l
1250 751 m
1283 742 l
1283 743 l
1250 753 l
1250 737 m
1250 726 l
1250 731 m
1283 721 l
1283 723 l
1250 732 l
1267 728 m
1267 746 l
1283 748 m
1283 737 l
1283 728 m
1283 717 l
1284 757 m
1275 758 l
1281 758 m
1284 757 l
1281 758 m
1281 760 l
1283 800 m
1283 810 l
1283 806 m
1266 810 l
1260 811 l
1255 811 l
1252 810 l
1250 806 l
1250 800 l
1252 796 l
1255 793 l
1255 810 m
1252 808 l
1250 806 l
1255 810 m
1260 810 l
1266 808 l
1283 804 l
1284 824 m
1284 833 l
1284 829 m
1250 837 l
1250 836 l
1284 828 l
1283 841 m
1274 842 l
1283 842 l
1283 841 l
1283 857 l
stroke

1283 853 m
1250 860 l
1250 859 l
1283 852 l
1274 848 m
1261 850 l
1268 849 m
1268 856 l
1250 856 m
1250 863 l
1250 841 m
1250 821 l
1260 819 l
1250 823 l
1225 897 m
1434 814 l
1434 824 m
1317 917 l
1444 942 m
1444 707 l
1409 598 m
1409 583 l
1407 579 l
1404 578 l
1401 578 l
1396 579 l
1394 581 l
1393 585 l
1393 597 l
1393 590 m
1391 587 l
1390 586 l
1377 585 l
1375 583 l
1375 581 l
1379 579 l
1380 579 l
1379 579 l
1377 581 l
1377 582 l
1379 583 l
1390 586 l
1393 585 m
1394 582 l
1396 581 l
1401 579 l
1404 579 l
1407 581 l
1409 583 l
1409 593 m
1375 601 l
1375 602 l
1409 594 l
1409 567 m
1409 549 l
1399 550 l
1409 550 l
1409 562 m
1375 569 l
1375 570 l
1409 563 l
1399 557 m
1386 560 l
1383 554 m
1375 557 l
1375 556 l
1383 554 l
1375 556 m
1375 574 l
1375 597 m
1375 607 l
1375 548 m
1375 542 l
1375 546 m
1408 533 l
1375 532 l
1375 533 l
1405 534 l
1409 521 m
1409 518 l
1379 517 l
1376 518 m
1409 507 l
1376 512 l
1376 511 l
1409 507 l
1409 504 l
1409 519 m
1376 523 l
1376 521 l
1376 526 l
1375 530 m
1375 536 l
1385 533 m
1385 542 l
1393 558 m
1393 566 l
1409 519 m
1376 518 l
1376 515 m
1376 509 l
1375 622 m
1409 613 l
1409 615 l
1375 624 l
1399 628 m
1409 625 l
1409 602 l
1399 604 l
1409 604 l
1409 624 m
1399 628 l
stroke

1406 637 m
1406 639 l
1406 637 l
1410 636 l
1400 637 l
1403 637 l
1406 639 l
1408 640 l
1410 645 l
1410 651 l
1408 656 l
1405 659 l
1402 659 l
1398 657 l
1397 656 l
1390 645 l
1387 642 l
1398 656 m
1402 659 l
1398 656 m
1392 645 l
1390 644 l
1387 642 l
1383 642 l
1379 644 l
1378 645 l
1376 650 l
1376 656 l
1378 661 l
1379 662 l
1383 664 l
1386 664 l
1376 665 l
1379 664 l
1379 662 l
1348 660 m
1348 665 l
1347 669 l
1343 673 l
1339 676 l
1334 677 l
1328 679 l
1323 679 l
1318 677 l
1316 676 l
1315 671 l
1315 668 l
1316 663 l
1320 660 l
1326 657 l
1326 658 l
1320 662 l
1316 665 l
1315 668 l
1315 671 m
1316 674 l
1318 676 l
1323 677 l
1328 677 l
1334 676 l
1339 674 l
1343 671 l
1347 668 l
1348 665 l
1348 660 m
1347 657 l
1345 655 l
1345 654 l
1348 652 l
1339 654 l
1342 654 l
1345 655 l
1326 652 m
1326 663 l
1325 689 m
1330 687 l
1337 686 l
1341 686 l
1346 687 l
1348 689 l
1349 692 l
1349 697 l
1348 700 l
1344 703 l
1340 706 l
1335 708 l
1329 710 l
1324 710 l
1319 708 l
1316 705 l
1316 700 l
1317 695 l
1321 692 l
1325 689 l
1325 690 l
1330 689 l
1337 687 l
1341 687 l
1346 689 l
1349 692 l
stroke

1349 697 m
1348 702 l
1344 705 l
1340 708 l
1335 710 l
1329 711 l
1324 711 l
1319 710 l
1317 708 l
1316 705 l
1316 700 m
1317 697 l
1321 694 l
1325 690 l
1325 728 m
1338 725 l
1332 727 m
1332 736 l
1348 737 m
1348 714 l
1338 716 l
1348 716 l
1348 731 m
1314 741 l
1314 742 l
1348 733 l
1314 736 m
1314 747 l
1225 708 m
1225 917 l
1434 917 l
1434 708 l
1434 499 l
1225 499 l
1225 708 l
1375 628 m
1375 618 l
1354 499 m
1354 917 l
1304 917 m
1304 499 l
1572 478 m
1595 474 l
1617 466 l
1668 446 m
1668 709 l
1669 709 l
1669 442 l
1699 429 l
1730 420 l
1762 414 l
1795 412 l
1795 709 l
1795 707 l
1795 1004 l
1762 1002 l
1730 996 l
1699 987 l
1669 974 l
1669 707 l
1668 707 l
1668 970 l
1667 972 l
1665 973 l
1550 605 m
1546 607 l
1542 605 l
1540 601 l
1542 597 l
1546 596 l
1550 597 l
1552 601 l
1550 605 l
1549 601 m
1543 602 l
1549 600 l
1549 601 l
1549 599 l
1548 598 l
1548 598 l
1547 598 l
1547 598 l
1546 598 l
1546 599 l
1546 601 l
1546 600 l
1546 599 l
1546 599 l
1544 599 l
1543 599 l
1543 598 l
1544 598 l
1544 598 l
1544 598 l
1544 598 l
1544 599 l
1546 599 l
1546 598 l
1547 598 l
1547 598 l
1548 598 l
1548 598 l
1549 599 l
stroke

1543 601 m
1543 603 l
1668 446 m
1667 444 l
1665 443 l
336 479 m
328 473 l
318 472 l
318 472 l
318 704 l
310 704 m
310 463 l
318 472 l
318 471 l
317 471 l
316 470 l
316 470 l
309 468 m
257 464 l
246 463 m
133 473 l
135 474 m
309 530 l
307 529 m
133 622 l
135 622 l
273 703 l
272 704 l
308 685 l
309 685 l
135 583 l
133 583 l
307 501 l
309 502 m
135 464 l
135 463 l
310 463 l
307 464 m
133 501 l
135 502 m
309 583 l
308 583 l
133 685 l
135 685 l
170 704 l
169 703 l
308 622 l
309 623 l
135 530 l
133 529 m
307 473 l
309 474 m
197 464 l
185 463 m
134 467 l
135 468 l
309 515 l
307 514 m
134 602 l
135 602 l
309 704 l
309 707 m
135 808 l
134 809 l
308 896 l
309 895 l
135 942 l
134 943 l
186 947 l
197 947 m
309 937 l
308 937 l
133 881 l
135 880 m
309 788 l
308 789 l
170 707 l
135 726 l
134 726 l
308 828 l
309 827 l
135 909 l
133 909 l
308 947 l
310 947 l
318 939 l
318 939 l
318 706 l
310 706 m
310 947 l
135 947 l
127 939 l
127 706 l
127 704 l
127 472 l
135 463 l
135 704 l
135 706 l
135 947 l
135 946 l
309 909 l
308 909 l
133 828 l
stroke

135 827 m
309 726 l
308 726 l
272 707 l
273 707 l
135 788 l
133 788 l
308 881 l
309 880 l
135 937 l
133 937 l
246 947 l
257 947 m
309 942 l
308 943 l
133 896 l
135 895 m
309 809 l
308 809 l
134 707 l
133 704 m
308 602 l
309 602 l
135 515 l
133 514 m
307 467 l
307 481 m
133 546 l
135 547 m
309 642 l
308 642 l
202 704 l
202 707 m
308 769 l
309 769 l
135 864 l
133 864 l
308 929 l
309 928 l
168 947 l
148 947 m
309 920 l
308 921 l
133 847 l
135 846 m
309 747 l
308 748 l
237 707 l
241 707 m
135 768 l
133 769 m
308 864 l
309 864 l
135 928 l
133 929 m
275 948 l
295 948 m
133 921 l
135 920 m
309 847 l
308 847 l
133 747 l
135 748 m
206 707 l
206 704 m
135 663 l
133 663 l
307 564 l
309 564 l
135 491 l
133 490 m
295 463 l
275 463 m
133 481 l
135 482 m
309 547 l
307 546 m
133 642 l
135 642 l
241 704 l
236 704 m
308 663 l
309 663 l
135 564 l
133 563 m
307 490 l
309 491 m
147 463 l
167 463 m
309 482 l
336 479 m
341 487 l
343 496 l
343 704 l
343 706 l
343 914 l
341 923 l
336 932 l
328 937 l
318 939 l
318 940 l
318 940 l
317 940 l
316 940 l
346 931 m
346 707 l
102 706 m
102 914 l
104 923 l
109 932 l
117 937 l
127 939 l
127 939 l
126 940 l
126 940 l
125 940 l
125 940 l
stroke

101 704 m
101 496 l
103 487 l
109 479 l
117 473 l
126 472 l
127 472 l
126 471 l
126 471 l
125 470 l
125 470 l
510 954 m
712 954 l
1824 955 m
1816 943 l
1819 933 m
1830 945 l
1844 954 l
1860 960 l
1876 962 l
2085 962 l
2085 978 m
1877 978 l
1862 977 l
1848 972 l
1835 965 l
1824 955 l
1843 967 m
1860 974 l
1877 977 l
2087 977 l
2072 945 m
1877 945 l
1864 943 l
1851 939 l
1840 931 l
1818 1009 m
1823 1022 l
1831 1033 l
1841 1043 l
1852 1050 l
1865 1054 l
1879 1056 l
2077 1056 l
2084 1062 m
1879 1062 l
1863 1061 l
1848 1055 l
1835 1046 l
1824 1034 l
1816 1019 l
1812 1004 l
1831 1022 m
1845 1035 l
1861 1043 l
1879 1046 l
2065 1046 l
2064 829 m
1875 829 l
1855 827 l
1837 822 l
1819 814 l
1829 814 m
1851 821 l
1875 824 l
2073 824 l
2082 817 m
1879 817 l
1864 816 l
1849 812 l
1852 664 m
1874 661 l
2031 661 l
2059 649 m
1877 649 l
1858 650 l
1838 654 l
1820 661 l
1813 656 m
1834 647 l
1856 641 l
1878 639 l
2073 639 l
2044 503 m
1884 503 l
1862 505 l
1840 511 l
1842 513 m
1860 509 l
1877 508 l
2037 508 l
2031 513 m
1833 513 l
1834 503 m
1850 495 l
1867 490 l
1885 488 l
2058 488 l
2046 402 m
1880 402 l
1864 404 l
1848 411 l
1835 421 l
stroke

1842 421 m
1854 413 l
1867 409 l
1880 407 l
2039 407 l
2032 412 m
1880 412 l
1864 414 l
1849 421 l
1854 421 m
1880 417 l
2022 417 l
2059 382 m
1880 382 l
1865 383 l
1851 388 l
1837 395 l
1826 405 l
1817 417 l
1820 515 m
1834 503 l
stroke

showpage