%!PS

gsave
/textfontsize 10 def
/Helvetica-BoldOblique findfont textfontsize scalefont setfont

/str 10 string def
/SC { %def set the color
	/blue exch 255 div def
	/green exch 255 div def
	/red exch 255 div def
	red green blue setrgbcolor
	newline
	red  1000 mul truncate 1000 div str cvs show	(  ) show
	green 1000 mul truncate 1000 div  str cvs show (  ) show
	blue 1000 mul truncate 1000 div  str cvs show (  ) show
	(  ) show
} bind def

/LM 72 def
/newline { currentpoint exch pop textfontsize sub LM exch moveto } bind def
/printname { currentpoint exch pop 300 exch moveto show  } bind def

72 770 moveto	
(red green blue   setrgbcolor) show  (Name) printname
newline

112 219 147 SC	(aquamarine ) printname
50 204 153 SC	(MediumAquamarine ) printname
0 0 0	 SC	(black ) printname
0 0 255	 SC	(blue ) printname
95 159 159 SC	(CadetBlue ) printname
66 66 111 SC	(CornflowerBlue ) printname
107 35 142 SC	(DarkSlateBlue ) printname
191 216 216 SC	(LightBlue ) printname
143 143 188 SC	(LightSteelBlue ) printname
50 50 204 SC	(MediumBlue ) printname
127 0 255 SC	(MediumSlateBlue ) printname
47 47 79 SC	(MidnightBlue ) printname
35 35 142 SC	(NavyBlue ) printname
35 35 142 SC	(navy ) printname
50 153 204 SC	(SkyBlue ) printname
0 127 255 SC	(SlateBlue ) printname
35 107 142 SC	(SteelBlue ) printname
255 127 0 SC	(coral ) printname
0 255 255 SC	(cyan ) printname
142 35 35 SC	(firebrick ) printname
165 42 42 SC	(brown ) printname
244 164 96 SC	(sandybrown ) printname
204 127 50 SC	(gold ) printname
219 219 112 SC	(goldenrod ) printname
234 234 173 SC	(MediumGoldenrod ) printname
0 255 0	 SC	(green ) printname
47 79 47 SC	(dark green ) printname
47 79 47 SC	(DarkGreen ) printname
79 79 47 SC	(DarkOliveGreen ) printname
35 142 35 SC	(ForestGreen ) printname
50 204 50 SC	(LimeGreen ) printname
107 142 35 SC	(MediumForestGreen ) printname
66 111 66 SC	(MediumSeaGreen ) printname
127 255 0 SC	(MediumSpringGreen ) printname
143 188 143 SC	(PaleGreen ) printname
35 142 107 SC	(SeaGreen ) printname
0 255 127 SC	(SpringGreen ) printname
153 204 50 SC	(YellowGreen ) printname
47 79 79 SC	(DarkSlateGrey ) printname
84 84 84 SC	(DimGrey ) printname
168 168 16 SC	(LightGrey ) printname
192 192 192 SC	(gray ) printname
159 159 95 SC	(khaki ) printname
255 0 255 SC	(magenta ) printname
142 35 107 SC	(maroon ) printname
204 50 50 SC	(orange ) printname
219 112 219 SC	(orchid ) printname
153 50 204 SC	(DarkOrchid ) printname
147 112 219 SC	(MediumOrchid ) printname
188 143 143 SC	(pink ) printname
234 173 234 SC	(plum ) printname
255 0 0	 SC	(red ) printname
79 47 47 SC	(IndianRed ) printname
219 112 14 SC	(MediumVioletRed ) printname
255 0 127 SC	(OrangeRed ) printname
204 50 153 SC	(VioletRed ) printname
111 66 66 SC	(salmon ) printname
142 107 35 SC	(sienna ) printname
219 147 112 SC	(tan ) printname
216 191 216 SC	(thistle ) printname
173 234 234 SC	(turquoise ) printname
112 147 219 SC	(DarkTurquoise ) printname
112 219 219 SC	(MediumTurquoise ) printname
79 47 79 SC	(violet ) printname
159 95 159 SC	(BlueViolet ) printname
216 216 191 SC	(wheat ) printname
255 255 255 SC	(white ) printname
255 255 0 SC	(yellow ) printname
147 219 112 SC	(GreenYellow ) printname

grestore
showpage
